%YAML 1.1
%TAG !u! tag:unity3d.com,2011:
--- !u!181963792 &2655988077585873504
Preset:
  m_ObjectHideFlags: 0
  m_PrefabParentObject: {fileID: 0}
  m_PrefabInternal: {fileID: 0}
  m_Name: TrailRenderer
  m_TargetType:
    m_NativeTypeID: 96
    m_ManagedTypePPtr: {fileID: 0}
    m_ManagedTypeFallback: 
  m_Properties:
  - target: {fileID: 0}
    propertyPath: m_Enabled
    value: 1
    objectReference: {fileID: 0}
  - target: {fileID: 0}
    propertyPath: m_CastShadows
    value: 1
    objectReference: {fileID: 0}
  - target: {fileID: 0}
    propertyPath: m_ReceiveShadows
    value: 1
    objectReference: {fileID: 0}
  - target: {fileID: 0}
    propertyPath: m_DynamicOccludee
    value: 1
    objectReference: {fileID: 0}
  - target: {fileID: 0}
    propertyPath: m_MotionVectors
    value: 1
    objectReference: {fileID: 0}
  - target: {fileID: 0}
    propertyPath: m_LightProbeUsage
    value: 0
    objectReference: {fileID: 0}
  - target: {fileID: 0}
    propertyPath: m_ReflectionProbeUsage
    value: 0
    objectReference: {fileID: 0}
  - target: {fileID: 0}
    propertyPath: m_RenderingLayerMask
    value: 4294967295
    objectReference: {fileID: 0}
  - target: {fileID: 0}
    propertyPath: m_Materials.Array.size
    value: 1
    objectReference: {fileID: 0}
  - target: {fileID: 0}
    propertyPath: m_Materials.Array.data[0]
    value: 
    objectReference: {fileID: 2100000, guid: de8744799705c8042844e9abaeabcf5b, type: 2}
  - target: {fileID: 0}
    propertyPath: m_StaticBatchInfo.firstSubMesh
    value: 0
    objectReference: {fileID: 0}
  - target: {fileID: 0}
    propertyPath: m_StaticBatchInfo.subMeshCount
    value: 0
    objectReference: {fileID: 0}
  - target: {fileID: 0}
    propertyPath: m_StaticBatchRoot
    value: 
    objectReference: {fileID: 0}
  - target: {fileID: 0}
    propertyPath: m_ProbeAnchor
    value: 
    objectReference: {fileID: 0}
  - target: {fileID: 0}
    propertyPath: m_LightProbeVolumeOverride
    value: 
    objectReference: {fileID: 0}
  - target: {fileID: 0}
    propertyPath: m_ScaleInLightmap
    value: 1
    objectReference: {fileID: 0}
  - target: {fileID: 0}
    propertyPath: m_PreserveUVs
    value: 0
    objectReference: {fileID: 0}
  - target: {fileID: 0}
    propertyPath: m_IgnoreNormalsForChartDetection
    value: 0
    objectReference: {fileID: 0}
  - target: {fileID: 0}
    propertyPath: m_ImportantGI
    value: 0
    objectReference: {fileID: 0}
  - target: {fileID: 0}
    propertyPath: m_StitchLightmapSeams
    value: 0
    objectReference: {fileID: 0}
  - target: {fileID: 0}
    propertyPath: m_SelectedEditorRenderState
    value: 3
    objectReference: {fileID: 0}
  - target: {fileID: 0}
    propertyPath: m_MinimumChartSize
    value: 4
    objectReference: {fileID: 0}
  - target: {fileID: 0}
    propertyPath: m_AutoUVMaxDistance
    value: 0.5
    objectReference: {fileID: 0}
  - target: {fileID: 0}
    propertyPath: m_AutoUVMaxAngle
    value: 89
    objectReference: {fileID: 0}
  - target: {fileID: 0}
    propertyPath: m_LightmapParameters
    value: 
    objectReference: {fileID: 0}
  - target: {fileID: 0}
    propertyPath: m_SortingLayerID
    value: 0
    objectReference: {fileID: 0}
  - target: {fileID: 0}
    propertyPath: m_SortingLayer
    value: 0
    objectReference: {fileID: 0}
  - target: {fileID: 0}
    propertyPath: m_SortingOrder
    value: 0
    objectReference: {fileID: 0}
  - target: {fileID: 0}
    propertyPath: m_Time
    value: 2
    objectReference: {fileID: 0}
  - target: {fileID: 0}
    propertyPath: m_Parameters.widthMultiplier
    value: 0.1
    objectReference: {fileID: 0}
  - target: {fileID: 0}
    propertyPath: m_Parameters.widthCurve.m_Curve.Array.size
    value: 2
    objectReference: {fileID: 0}
  - target: {fileID: 0}
    propertyPath: m_Parameters.widthCurve.m_Curve.Array.data[0].time
    value: 0
    objectReference: {fileID: 0}
  - target: {fileID: 0}
    propertyPath: m_Parameters.widthCurve.m_Curve.Array.data[0].value
    value: 1
    objectReference: {fileID: 0}
  - target: {fileID: 0}
    propertyPath: m_Parameters.widthCurve.m_Curve.Array.data[0].inSlope
    value: -1
    objectReference: {fileID: 0}
  - target: {fileID: 0}
    propertyPath: m_Parameters.widthCurve.m_Curve.Array.data[0].outSlope
    value: -1
    objectReference: {fileID: 0}
  - target: {fileID: 0}
    propertyPath: m_Parameters.widthCurve.m_Curve.Array.data[0].tangentMode
    value: 34
    objectReference: {fileID: 0}
  - target: {fileID: 0}
    propertyPath: m_Parameters.widthCurve.m_Curve.Array.data[0].weightedMode
    value: 0
    objectReference: {fileID: 0}
  - target: {fileID: 0}
    propertyPath: m_Parameters.widthCurve.m_Curve.Array.data[0].inWeight
    value: 0.33333334
    objectReference: {fileID: 0}
  - target: {fileID: 0}
    propertyPath: m_Parameters.widthCurve.m_Curve.Array.data[0].outWeight
    value: 0.33333334
    objectReference: {fileID: 0}
  - target: {fileID: 0}
    propertyPath: m_Parameters.widthCurve.m_Curve.Array.data[1].time
    value: 1
    objectReference: {fileID: 0}
  - target: {fileID: 0}
    propertyPath: m_Parameters.widthCurve.m_Curve.Array.data[1].value
    value: 0
    objectReference: {fileID: 0}
  - target: {fileID: 0}
    propertyPath: m_Parameters.widthCurve.m_Curve.Array.data[1].inSlope
    value: -1
    objectReference: {fileID: 0}
  - target: {fileID: 0}
    propertyPath: m_Parameters.widthCurve.m_Curve.Array.data[1].outSlope
    value: -1
    objectReference: {fileID: 0}
  - target: {fileID: 0}
    propertyPath: m_Parameters.widthCurve.m_Curve.Array.data[1].tangentMode
    value: 34
    objectReference: {fileID: 0}
  - target: {fileID: 0}
    propertyPath: m_Parameters.widthCurve.m_Curve.Array.data[1].weightedMode
    value: 0
    objectReference: {fileID: 0}
  - target: {fileID: 0}
    propertyPath: m_Parameters.widthCurve.m_Curve.Array.data[1].inWeight
    value: 0.33333334
    objectReference: {fileID: 0}
  - target: {fileID: 0}
    propertyPath: m_Parameters.widthCurve.m_Curve.Array.data[1].outWeight
    value: 0
    objectReference: {fileID: 0}
  - target: {fileID: 0}
    propertyPath: m_Parameters.widthCurve.m_PreInfinity
    value: 2
    objectReference: {fileID: 0}
  - target: {fileID: 0}
    propertyPath: m_Parameters.widthCurve.m_PostInfinity
    value: 2
    objectReference: {fileID: 0}
  - target: {fileID: 0}
    propertyPath: m_Parameters.widthCurve.m_RotationOrder
    value: 4
    objectReference: {fileID: 0}
  - target: {fileID: 0}
    propertyPath: m_Parameters.colorGradient.key0.r
    value: 0.5019608
    objectReference: {fileID: 0}
  - target: {fileID: 0}
    propertyPath: m_Parameters.colorGradient.key0.g
    value: 0.5019608
    objectReference: {fileID: 0}
  - target: {fileID: 0}
    propertyPath: m_Parameters.colorGradient.key0.b
    value: 0.5019608
    objectReference: {fileID: 0}
  - target: {fileID: 0}
    propertyPath: m_Parameters.colorGradient.key0.a
    value: 1
    objectReference: {fileID: 0}
  - target: {fileID: 0}
    propertyPath: m_Parameters.colorGradient.key1.r
    value: 0
    objectReference: {fileID: 0}
  - target: {fileID: 0}
    propertyPath: m_Parameters.colorGradient.key1.g
    value: 0
    objectReference: {fileID: 0}
  - target: {fileID: 0}
    propertyPath: m_Parameters.colorGradient.key1.b
    value: 0
    objectReference: {fileID: 0}
  - target: {fileID: 0}
    propertyPath: m_Parameters.colorGradient.key1.a
    value: 1
    objectReference: {fileID: 0}
  - target: {fileID: 0}
    propertyPath: m_Parameters.colorGradient.key2.r
    value: 0
    objectReference: {fileID: 0}
  - target: {fileID: 0}
    propertyPath: m_Parameters.colorGradient.key2.g
    value: 0
    objectReference: {fileID: 0}
  - target: {fileID: 0}
    propertyPath: m_Parameters.colorGradient.key2.b
    value: 0
    objectReference: {fileID: 0}
  - target: {fileID: 0}
    propertyPath: m_Parameters.colorGradient.key2.a
    value: 0
    objectReference: {fileID: 0}
  - target: {fileID: 0}
    propertyPath: m_Parameters.colorGradient.key3.r
    value: 0
    objectReference: {fileID: 0}
  - target: {fileID: 0}
    propertyPath: m_Parameters.colorGradient.key3.g
    value: 0
    objectReference: {fileID: 0}
  - target: {fileID: 0}
    propertyPath: m_Parameters.colorGradient.key3.b
    value: 0
    objectReference: {fileID: 0}
  - target: {fileID: 0}
    propertyPath: m_Parameters.colorGradient.key3.a
    value: 0
    objectReference: {fileID: 0}
  - target: {fileID: 0}
    propertyPath: m_Parameters.colorGradient.key4.r
    value: 0
    objectReference: {fileID: 0}
  - target: {fileID: 0}
    propertyPath: m_Parameters.colorGradient.key4.g
    value: 0
    objectReference: {fileID: 0}
  - target: {fileID: 0}
    propertyPath: m_Parameters.colorGradient.key4.b
    value: 0
    objectReference: {fileID: 0}
  - target: {fileID: 0}
    propertyPath: m_Parameters.colorGradient.key4.a
    value: 0
    objectReference: {fileID: 0}
  - target: {fileID: 0}
    propertyPath: m_Parameters.colorGradient.key5.r
    value: 0
    objectReference: {fileID: 0}
  - target: {fileID: 0}
    propertyPath: m_Parameters.colorGradient.key5.g
    value: 0
    objectReference: {fileID: 0}
  - target: {fileID: 0}
    propertyPath: m_Parameters.colorGradient.key5.b
    value: 0
    objectReference: {fileID: 0}
  - target: {fileID: 0}
    propertyPath: m_Parameters.colorGradient.key5.a
    value: 0
    objectReference: {fileID: 0}
  - target: {fileID: 0}
    propertyPath: m_Parameters.colorGradient.key6.r
    value: 0
    objectReference: {fileID: 0}
  - target: {fileID: 0}
    propertyPath: m_Parameters.colorGradient.key6.g
    value: 0
    objectReference: {fileID: 0}
  - target: {fileID: 0}
    propertyPath: m_Parameters.colorGradient.key6.b
    value: 0
    objectReference: {fileID: 0}
  - target: {fileID: 0}
    propertyPath: m_Parameters.colorGradient.key6.a
    value: 0
    objectReference: {fileID: 0}
  - target: {fileID: 0}
    propertyPath: m_Parameters.colorGradient.key7.r
    value: 0
    objectReference: {fileID: 0}
  - target: {fileID: 0}
    propertyPath: m_Parameters.colorGradient.key7.g
    value: 0
    objectReference: {fileID: 0}
  - target: {fileID: 0}
    propertyPath: m_Parameters.colorGradient.key7.b
    value: 0
    objectReference: {fileID: 0}
  - target: {fileID: 0}
    propertyPath: m_Parameters.colorGradient.key7.a
    value: 0
    objectReference: {fileID: 0}
  - target: {fileID: 0}
    propertyPath: m_Parameters.colorGradient.ctime0
    value: 0
    objectReference: {fileID: 0}
  - target: {fileID: 0}
    propertyPath: m_Parameters.colorGradient.ctime1
    value: 65535
    objectReference: {fileID: 0}
  - target: {fileID: 0}
    propertyPath: m_Parameters.colorGradient.ctime2
    value: 0
    objectReference: {fileID: 0}
  - target: {fileID: 0}
    propertyPath: m_Parameters.colorGradient.ctime3
    value: 0
    objectReference: {fileID: 0}
  - target: {fileID: 0}
    propertyPath: m_Parameters.colorGradient.ctime4
    value: 0
    objectReference: {fileID: 0}
  - target: {fileID: 0}
    propertyPath: m_Parameters.colorGradient.ctime5
    value: 0
    objectReference: {fileID: 0}
  - target: {fileID: 0}
    propertyPath: m_Parameters.colorGradient.ctime6
    value: 0
    objectReference: {fileID: 0}
  - target: {fileID: 0}
    propertyPath: m_Parameters.colorGradient.ctime7
    value: 0
    objectReference: {fileID: 0}
  - target: {fileID: 0}
    propertyPath: m_Parameters.colorGradient.atime0
    value: 0
    objectReference: {fileID: 0}
  - target: {fileID: 0}
    propertyPath: m_Parameters.colorGradient.atime1
    value: 65535
    objectReference: {fileID: 0}
  - target: {fileID: 0}
    propertyPath: m_Parameters.colorGradient.atime2
    value: 0
    objectReference: {fileID: 0}
  - target: {fileID: 0}
    propertyPath: m_Parameters.colorGradient.atime3
    value: 0
    objectReference: {fileID: 0}
  - target: {fileID: 0}
    propertyPath: m_Parameters.colorGradient.atime4
    value: 0
    objectReference: {fileID: 0}
  - target: {fileID: 0}
    propertyPath: m_Parameters.colorGradient.atime5
    value: 0
    objectReference: {fileID: 0}
  - target: {fileID: 0}
    propertyPath: m_Parameters.colorGradient.atime6
    value: 0
    objectReference: {fileID: 0}
  - target: {fileID: 0}
    propertyPath: m_Parameters.colorGradient.atime7
    value: 0
    objectReference: {fileID: 0}
  - target: {fileID: 0}
    propertyPath: m_Parameters.colorGradient.m_Mode
    value: 0
    objectReference: {fileID: 0}
  - target: {fileID: 0}
    propertyPath: m_Parameters.colorGradient.m_NumColorKeys
    value: 2
    objectReference: {fileID: 0}
  - target: {fileID: 0}
    propertyPath: m_Parameters.colorGradient.m_NumAlphaKeys
    value: 2
    objectReference: {fileID: 0}
  - target: {fileID: 0}
    propertyPath: m_Parameters.numCornerVertices
    value: 0
    objectReference: {fileID: 0}
  - target: {fileID: 0}
    propertyPath: m_Parameters.numCapVertices
    value: 0
    objectReference: {fileID: 0}
  - target: {fileID: 0}
    propertyPath: m_Parameters.alignment
    value: 0
    objectReference: {fileID: 0}
  - target: {fileID: 0}
    propertyPath: m_Parameters.textureMode
    value: 0
    objectReference: {fileID: 0}
  - target: {fileID: 0}
    propertyPath: m_Parameters.generateLightingData
    value: 0
    objectReference: {fileID: 0}
  - target: {fileID: 0}
    propertyPath: m_MinVertexDistance
    value: 0.1
    objectReference: {fileID: 0}
  - target: {fileID: 0}
    propertyPath: m_Autodestruct
    value: 0
    objectReference: {fileID: 0}
